{
    "key": "group_596e30ad40946",
    "title": "Homepage Hero",
    "fields": [
        {
            "key": "field_596e30bfaa50e",
            "label": "Hero copy",
            "name": "d_hero_copy",
            "type": "text",
            "instructions": "",
            "required": 0,
            "conditional_logic": 0,
            "wrapper": {
                "width": "",
                "class": "",
                "id": ""
            },
            "default_value": "",
            "placeholder": "",
            "prepend": "",
            "append": "",
            "maxlength": ""
        },
        {
            "key": "field_596e30d9aa50f",
            "label": "Hero Type",
            "name": "d_hero_type",
            "type": "radio",
            "instructions": "Choose your layout for the hero.",
            "required": 0,
            "conditional_logic": 0,
            "wrapper": {
                "width": "70",
                "class": "",
                "id": ""
            },
            "choices": {
                "dayslider": "Time of day slider",
                "overlay": "Overlaid badge",
                "video": "Video"
            },
            "allow_null": 0,
            "other_choice": 0,
            "save_other_choice": 0,
            "default_value": "dayslider",
            "layout": "vertical",
            "return_format": "value"
        },
        {
            "key": "field_5a05c1b2a135b",
            "label": "Slider Autoscroll Speed",
            "name": "d_hero_autoscroll_speed",
            "type": "number",
            "instructions": "The number of seconds between each slide before the image rotates automatically. Leave blank to disable autoscrolling.",
            "required": 0,
            "conditional_logic": 0,
            "wrapper": {
                "width": "30",
                "class": "",
                "id": ""
            },
            "default_value": "",
            "placeholder": "",
            "prepend": "",
            "append": "",
            "min": "",
            "max": 10,
            "step": 1
        },
        {
            "key": "field_5b3e8203f9f2e",
            "label": "Show Navigation?",
            "name": "show_navigation",
            "type": "true_false",
            "instructions": "",
            "required": 0,
            "conditional_logic": [
                [
                    {
                        "field": "field_596e30d9aa50f",
                        "operator": "==",
                        "value": "dayslider"
                    }
                ]
            ],
            "wrapper": {
                "width": "",
                "class": "",
                "id": ""
            },
            "message": "",
            "default_value": 0,
            "ui": 0,
            "ui_on_text": "",
            "ui_off_text": ""
        },
        {
            "key": "field_596e32d6a7cad",
            "label": "Time of day images",
            "name": "",
            "type": "message",
            "instructions": "",
            "required": 0,
            "conditional_logic": [
                [
                    {
                        "field": "field_596e30d9aa50f",
                        "operator": "==",
                        "value": "dayslider"
                    }
                ]
            ],
            "wrapper": {
                "width": "",
                "class": "",
                "id": ""
            },
            "message": "The user will be able to slide through these images representing a specific time of day on a DuVine tour. Each of these images should be <code>1440px X 810px<\/code> and ideally no larger than 250kb.",
            "new_lines": "",
            "esc_html": 0
        },
        {
            "key": "field_5c6196020710c",
            "label": "Morning Label",
            "name": "d_hero_morning_label",
            "type": "text",
            "instructions": "",
            "required": 0,
            "conditional_logic": [
                [
                    {
                        "field": "field_596e30d9aa50f",
                        "operator": "==",
                        "value": "dayslider"
                    }
                ]
            ],
            "wrapper": {
                "width": "25",
                "class": "",
                "id": ""
            },
            "default_value": "Morning",
            "placeholder": "",
            "prepend": "",
            "append": "",
            "maxlength": ""
        },
        {
            "key": "field_5c61966b852c5",
            "label": "Afternoon Label",
            "name": "d_hero_afternoon_label",
            "type": "text",
            "instructions": "",
            "required": 0,
            "conditional_logic": [
                [
                    {
                        "field": "field_596e30d9aa50f",
                        "operator": "==",
                        "value": "dayslider"
                    }
                ]
            ],
            "wrapper": {
                "width": "25",
                "class": "",
                "id": ""
            },
            "default_value": "Afternoon",
            "placeholder": "",
            "prepend": "",
            "append": "",
            "maxlength": ""
        },
        {
            "key": "field_5c61966e852c6",
            "label": "Evening Label",
            "name": "d_hero_evening_label",
            "type": "text",
            "instructions": "",
            "required": 0,
            "conditional_logic": [
                [
                    {
                        "field": "field_596e30d9aa50f",
                        "operator": "==",
                        "value": "dayslider"
                    }
                ]
            ],
            "wrapper": {
                "width": "25",
                "class": "",
                "id": ""
            },
            "default_value": "Evening",
            "placeholder": "",
            "prepend": "",
            "append": "",
            "maxlength": ""
        },
        {
            "key": "field_5c619669852c4",
            "label": "Night Label",
            "name": "d_hero_night_label",
            "type": "text",
            "instructions": "",
            "required": 0,
            "conditional_logic": [
                [
                    {
                        "field": "field_596e30d9aa50f",
                        "operator": "==",
                        "value": "dayslider"
                    }
                ]
            ],
            "wrapper": {
                "width": "25",
                "class": "",
                "id": ""
            },
            "default_value": "Night",
            "placeholder": "",
            "prepend": "",
            "append": "",
            "maxlength": ""
        },
        {
            "key": "field_596e31bfaa510",
            "label": "Morning Image",
            "name": "d_hero_morning",
            "type": "image",
            "instructions": "",
            "required": 0,
            "conditional_logic": [
                [
                    {
                        "field": "field_596e30d9aa50f",
                        "operator": "==",
                        "value": "dayslider"
                    }
                ]
            ],
            "wrapper": {
                "width": "25",
                "class": "",
                "id": ""
            },
            "return_format": "array",
            "preview_size": "thumbnail",
            "library": "all",
            "min_width": "",
            "min_height": "",
            "min_size": "",
            "max_width": "",
            "max_height": "",
            "max_size": "",
            "mime_types": ""
        },
        {
            "key": "field_596e3225aa511",
            "label": "Afternoon Image",
            "name": "d_hero_afternoon",
            "type": "image",
            "instructions": "",
            "required": 0,
            "conditional_logic": [
                [
                    {
                        "field": "field_596e30d9aa50f",
                        "operator": "==",
                        "value": "dayslider"
                    }
                ]
            ],
            "wrapper": {
                "width": "25",
                "class": "",
                "id": ""
            },
            "return_format": "array",
            "preview_size": "thumbnail",
            "library": "all",
            "min_width": "",
            "min_height": "",
            "min_size": "",
            "max_width": "",
            "max_height": "",
            "max_size": "",
            "mime_types": ""
        },
        {
            "key": "field_596e3236aa512",
            "label": "Evening Image",
            "name": "d_hero_evening",
            "type": "image",
            "instructions": "",
            "required": 0,
            "conditional_logic": [
                [
                    {
                        "field": "field_596e30d9aa50f",
                        "operator": "==",
                        "value": "dayslider"
                    }
                ]
            ],
            "wrapper": {
                "width": "25",
                "class": "",
                "id": ""
            },
            "return_format": "array",
            "preview_size": "thumbnail",
            "library": "all",
            "min_width": "",
            "min_height": "",
            "min_size": "",
            "max_width": "",
            "max_height": "",
            "max_size": "",
            "mime_types": ""
        },
        {
            "key": "field_596e3241aa513",
            "label": "Night Image",
            "name": "d_hero_night",
            "type": "image",
            "instructions": "",
            "required": 0,
            "conditional_logic": [
                [
                    {
                        "field": "field_596e30d9aa50f",
                        "operator": "==",
                        "value": "dayslider"
                    }
                ]
            ],
            "wrapper": {
                "width": "25",
                "class": "",
                "id": ""
            },
            "return_format": "array",
            "preview_size": "thumbnail",
            "library": "all",
            "min_width": "",
            "min_height": "",
            "min_size": "",
            "max_width": "",
            "max_height": "",
            "max_size": "",
            "mime_types": ""
        },
        {
            "key": "field_596e324faa514",
            "label": "Hero Image",
            "name": "d_hero_image_homepage",
            "type": "image",
            "instructions": "Hero image. This image should be <code>1440px X 810px<\/code> and ideally no larger than 250kb.",
            "required": 0,
            "conditional_logic": [
                [
                    {
                        "field": "field_596e30d9aa50f",
                        "operator": "==",
                        "value": "overlay"
                    }
                ]
            ],
            "wrapper": {
                "width": "",
                "class": "",
                "id": ""
            },
            "return_format": "array",
            "preview_size": "thumbnail",
            "library": "all",
            "min_width": "",
            "min_height": "",
            "min_size": "",
            "max_width": "",
            "max_height": "",
            "max_size": "",
            "mime_types": ""
        },
        {
            "key": "field_5b3e8254f9f2f",
            "label": "Hero Video",
            "name": "d_hero_video_homepage",
            "type": "file",
            "instructions": "",
            "required": 0,
            "conditional_logic": [
                [
                    {
                        "field": "field_596e30d9aa50f",
                        "operator": "==",
                        "value": "video"
                    }
                ]
            ],
            "wrapper": {
                "width": "",
                "class": "",
                "id": ""
            },
            "return_format": "url",
            "library": "all",
            "min_size": "",
            "max_size": "",
            "mime_types": ""
        },
        {
            "key": "field_596e326aaa516",
            "label": "Overlaid Image",
            "name": "d_hero_overlaid_image",
            "type": "image",
            "instructions": "This image will be overlaid on the hero image. This is generally a badge or some other marketing logo.",
            "required": 0,
            "conditional_logic": [
                [
                    {
                        "field": "field_596e30d9aa50f",
                        "operator": "==",
                        "value": "overlay"
                    }
                ]
            ],
            "wrapper": {
                "width": "",
                "class": "",
                "id": ""
            },
            "return_format": "array",
            "preview_size": "thumbnail",
            "library": "all",
            "min_width": "",
            "min_height": "",
            "min_size": "",
            "max_width": "",
            "max_height": "",
            "max_size": "",
            "mime_types": ""
        },
        {
            "key": "field_5b3e829ff9f31",
            "label": "Hero CTA Link",
            "name": "d_hero_cta_link",
            "type": "link",
            "instructions": "",
            "required": 0,
            "conditional_logic": 0,
            "wrapper": {
                "width": "",
                "class": "",
                "id": ""
            },
            "return_format": "url"
        },
        {
            "key": "field_5b3e82b5f9f32",
            "label": "Hero CTA Text",
            "name": "d_hero_cta_text",
            "type": "text",
            "instructions": "",
            "required": 0,
            "conditional_logic": 0,
            "wrapper": {
                "width": "",
                "class": "",
                "id": ""
            },
            "default_value": "",
            "placeholder": "",
            "prepend": "",
            "append": "",
            "maxlength": ""
        },
        {
            "key": "field_5b92e032c9319",
            "label": "Mobile Header Replacement",
            "name": "mobile_header_replacement",
            "type": "image",
            "instructions": "For when the video hero is reduced in size.",
            "required": 0,
            "conditional_logic": 0,
            "wrapper": {
                "width": "",
                "class": "",
                "id": ""
            },
            "return_format": "url",
            "preview_size": "thumbnail",
            "library": "all",
            "min_width": "",
            "min_height": "",
            "min_size": "",
            "max_width": "",
            "max_height": "",
            "max_size": "",
            "mime_types": ""
        },
        {
            "key": "field_5bb51e84eb9a3",
            "label": "Desktop Header Before Video Load",
            "name": "desktop_header_before_video_load",
            "type": "image",
            "instructions": "",
            "required": 0,
            "conditional_logic": 0,
            "wrapper": {
                "width": "",
                "class": "",
                "id": ""
            },
            "return_format": "url",
            "preview_size": "thumbnail",
            "library": "all",
            "min_width": "",
            "min_height": "",
            "min_size": "",
            "max_width": "",
            "max_height": "",
            "max_size": "",
            "mime_types": ""
        }
    ],
    "location": [
        [
            {
                "param": "post_type",
                "operator": "==",
                "value": "page"
            },
            {
                "param": "page_type",
                "operator": "==",
                "value": "front_page"
            }
        ]
    ],
    "menu_order": 0,
    "position": "acf_after_title",
    "style": "default",
    "label_placement": "top",
    "instruction_placement": "label",
    "hide_on_screen": "",
    "active": 1,
    "description": "Fields for the homepage banner",
    "modified": 1549899510
}